module socialNetwork

go 1.16

require (
	github.com/gin-gonic/gin v1.7.2
	github.com/go-playground/validator/v10 v10.6.1 // indirect
	github.com/leodido/go-urn v1.2.1 // indirect
	github.com/mattn/go-isatty v0.0.13 // indirect
	github.com/modern-go/concurrent v0.0.0-20180306012644-bacd9c7ef1dd // indirect
	github.com/spf13/viper v1.8.0
	github.com/ugorji/go v1.2.6 // indirect
	golang.org/x/crypto v0.0.0-20210616213533-5ff15b29337e // indirect
	golang.org/x/sys v0.0.0-20210616094352-59db8d763f22 // indirect
	golang.org/x/text v0.3.6 // indirect
)
